"Command/Option","Description"
"sam accessories delete byid","Delete a specific accessory by the unique accessory ID."
"sam accessories get byid","Retrieve the details on a specific accessory using the unique accessory ID."
"sam accessories get checkedout","Get the users that an accessory is checked out to."
"sam accessories get checkedout byid","Get the users that a specific accessory is checked out to by using the unique accessory ID. Options may be used to filter the results."
"sam accessories get search","Search for accessories to retrieve. A search term may be used and/or options may be used for filtering the results."
"sam accessories patch byid","Update an existing accessory using the unique accessory ID."
"sam accessories post checkin","Check an accessory in from a user."
"sam accessories post checkin bypivotid","Check an accessory in using the assigned pivot ID. This is different from the accessory ID and the user ID. The ID has the fieldname 'assigned_pivot_id'."
"sam accessories post checkout","Check an accessory out to a user."
"sam accessories post checkout byid","Check an accessory out using the unique accessory ID to a user using their unique user ID."
"sam accessories post create","Create a new accessory."
"",""
"sam categories delete byid","Delete a specific category by the unique category ID."
"sam categories get byid","Retrieve the details on a specific category using the unique category ID."
"sam categories get search","Search for categories to retrieve. A search term may be used and/or options may be used for filtering the results."
"sam categories patch byid","Update an existing category using the unique category ID."
"sam categories post create","Create a new category."
"",""
"sam companies delete byid","Delete a specific company by the unique company ID."
"sam companies get byid","Retrieve the details on a specific company using the unique company ID."
"sam companies get search","Search for companies to retrieve. A search term may be used and/or options may be used for filtering the results."
"sam companies patch byid","Update an existing company using the unique company ID."
"sam companies post create","Create a new company."
"",""
"sam components delete byid","Delete a specific component by the unique component ID."
"sam components get asset","Get assets that a component has been checked out to."
"sam components get asset byid","Retrieve the details on the assets of a specific component using the unique component ID."
"sam components get byid","Retrieve the details on a specific component using the unique component ID."
"sam components get search","Search for components to retrieve. A search term may be used and/or options may be used for filtering the results."
"sam components patch byid","Update an existing component using the unique component ID."
"sam components post create","Create a new component."
"",""
"sam consumables delete byid","Delete a specific consumable by the unique consumable ID."
"sam consumables get byid","Retrieve the details on a specific consumable using the unique consumable ID."
"sam consumables get search","Search for consumables to retrieve. A search term may be used and/or options may be used for filtering the results."
"sam consumables patch byid","Update an existing consumable using the unique consumable ID."
"sam consumables post checkin","Check an consumable in from a user."
"sam consumables post checkin bypivotid","Check an consumable in using the assigned pivot ID. This is different from the consumable ID and the user ID. The ID has the fieldname 'assigned_pivot_id'."
"sam consumables post checkout","Check an consumable out to a user."
"sam consumables post checkout byid","Check an consumable out using the unique consumable ID to a user using their unique user ID."
"sam consumables post create","Create a new consumable."
"",""
"sam departments delete byid","Delete a specific department by the unique department ID."
"sam departments get byid","Retrieve the details on a specific department using the unique department ID."
"sam departments get search","Search for departments to retrieve. A search term may be used and/or options may be used for filtering the results."
"sam departments patch byid","Update an existing department using the unique department ID."
"sam departments post create","Create a new department."
"",""
"sam hardware delete byid","Delete a specific asset by the unique asset ID."
"sam hardware get audit","Retrieve upcoming or past due audit information about assets. This API uses the 'Audit Threshold' in 'Admin Settings > Notifications' to determine whether an asset is due for audit."
"sam hardware get audit due","Retrieve the details of assets that are within the audit threshold."
"sam hardware get audit overdue","Retrieve the details of assets that are due for audit or past due for an audit."
"sam hardware get byid","Retrieve the details on a specific asset using the unique asset ID."
"sam hardware get byserial","Retrieve the details on a specific asset using the asset serial. This may return more than one result if there is more than one asset matching the serial number."
"sam hardware get bytag","Retrieve the details on a specific asset using the asset tag."
"sam hardware licenses","Retrieve the licenses that are checked out to an asset."
"sam hardware licenses byid","Retrieve the licenses that are checked out to a specific asset using the unique asset ID."
"sam hardware get search","Search for assets to retrieve. A search term may be used and/or options may be used for filtering the results."
"sam hardware patch byid","Update an existing asset using the unique asset ID."
"sam hardware post audit","Audit an asset."
"sam hardware post audit bytag","Audit an asset using the asset tag."
"sam hardware post checkin","Check an asset in from a user/location/asset."
"sam hardware post checkin byid","Check an asset in using the unique asset ID."
"sam hardware post checkout","Check an asset out to a user/location/asset."
"sam hardware post checkout byid","check and asset out using the unique asset ID."
"sam hardware post create","Create a new asset."
